module gitlab.com/nunet/device-management-service

go 1.22.0

toolchain go1.22.7

require (
	github.com/NVIDIA/go-nvml v0.12.4-0
	github.com/aws/aws-sdk-go-v2 v1.32.7
	github.com/docker/docker v27.4.1+incompatible
	github.com/fatih/structs v1.1.0
	github.com/firecracker-microvm/firecracker-go-sdk v1.0.0
	github.com/fivebinaries/go-cardano-serialization v0.0.0-20220907134105-ec9b85086588
	github.com/gin-contrib/cors v1.7.3
	github.com/gin-gonic/gin v1.10.0
	github.com/go-viper/mapstructure/v2 v2.2.1
	github.com/google/uuid v1.6.0
	github.com/hashicorp/go-version v1.7.0
	github.com/iancoleman/strcase v0.3.0
	github.com/libp2p/go-libp2p v0.38.1
	github.com/libp2p/go-libp2p-kad-dht v0.28.1
	github.com/libp2p/go-libp2p-pubsub v0.12.0
	github.com/manifoldco/promptui v0.9.0
	github.com/multiformats/go-multiaddr v0.14.0
	github.com/oschwald/geoip2-golang v1.11.0
	github.com/ostafen/clover/v2 v2.0.0-alpha.3
	github.com/robfig/cron/v3 v3.0.1
	github.com/shirou/gopsutil/v4 v4.24.12
	github.com/shoenig/go-m1cpu v0.1.6
	github.com/songgao/water v0.0.0-20200317203138-2b4b6d7c09d8
	github.com/spf13/afero v1.11.0
	github.com/spf13/cobra v1.8.1
	github.com/spf13/viper v1.19.0
	github.com/stretchr/testify v1.10.0
	github.com/tyler-smith/go-bip39 v1.1.0
	github.com/whyrusleeping/multiaddr-filter v0.0.0-20160516205228-e903e4adabd7
	go.uber.org/zap v1.27.0
	google.golang.org/protobuf v1.36.1
)

require (
	github.com/Microsoft/go-winio v0.6.2 // indirect
	github.com/StackExchange/wmi v1.2.1 // indirect
	github.com/benbjohnson/clock v1.3.5 // indirect
	github.com/beorn7/perks v1.0.1 // indirect
	github.com/btcsuite/btcutil v1.0.2 // indirect
	github.com/bytedance/sonic v1.12.6 // indirect
	github.com/cespare/xxhash/v2 v2.3.0 // indirect
	github.com/davecgh/go-spew v1.1.2-0.20180830191138-d8f796af33cc // indirect
	github.com/davidlazar/go-crypto v0.0.0-20200604182044-b73af7476f6c // indirect
	github.com/decred/dcrd/dcrec/secp256k1/v4 v4.3.0
	github.com/docker/go-connections v0.4.0
	github.com/docker/go-units v0.5.0 // indirect
	github.com/dustin/go-humanize v1.0.1
	github.com/elastic/gosigar v0.14.3 // indirect
	github.com/flynn/noise v1.1.0 // indirect
	github.com/francoispqt/gojay v1.2.13 // indirect
	github.com/fsnotify/fsnotify v1.7.0 // indirect
	github.com/fxamacker/cbor/v2 v2.4.0 // indirect
	github.com/gabriel-vasile/mimetype v1.4.7 // indirect
	github.com/gin-contrib/sse v0.1.0 // indirect
	github.com/go-logr/logr v1.4.2 // indirect
	github.com/go-logr/stdr v1.2.2 // indirect
	github.com/go-ole/go-ole v1.3.0 // indirect
	github.com/go-openapi/jsonpointer v0.20.0 // indirect
	github.com/go-openapi/jsonreference v0.20.2 // indirect
	github.com/go-openapi/spec v0.20.9 // indirect
	github.com/go-openapi/swag v0.22.4 // indirect
	github.com/go-playground/locales v0.14.1 // indirect
	github.com/go-playground/universal-translator v0.18.1 // indirect
	github.com/go-playground/validator/v10 v10.23.0 // indirect
	github.com/goccy/go-json v0.10.4 // indirect
	github.com/godbus/dbus/v5 v5.1.0 // indirect
	github.com/gogo/protobuf v1.3.2 // indirect
	github.com/golang/protobuf v1.5.4 // indirect
	github.com/google/gopacket v1.1.19
	github.com/google/pprof v0.0.0-20241210010833-40e02aabc2ad // indirect
	github.com/hashicorp/errwrap v1.1.0 // indirect
	github.com/hashicorp/go-multierror v1.1.1 // indirect
	github.com/hashicorp/golang-lru v1.0.2 // indirect
	github.com/hashicorp/hcl v1.0.0 // indirect
	github.com/huin/goupnp v1.3.0 // indirect
	github.com/inconshreveable/mousetrap v1.1.0 // indirect
	github.com/ipfs/boxo v0.24.3 // indirect
	github.com/ipfs/go-cid v0.4.1
	github.com/ipfs/go-datastore v0.6.0 // indirect
	github.com/ipfs/go-log/v2 v2.5.1
	github.com/ipld/go-ipld-prime v0.21.0 // indirect
	github.com/jackpal/go-nat-pmp v1.0.2 // indirect
	github.com/jbenet/go-temp-err-catcher v0.1.0 // indirect
	github.com/jbenet/goprocess v0.1.4 // indirect
	github.com/josharian/intern v1.0.0 // indirect
	github.com/json-iterator/go v1.1.12 // indirect
	github.com/klauspost/compress v1.17.11 // indirect
	github.com/klauspost/cpuid/v2 v2.2.9 // indirect
	github.com/koron/go-ssdp v0.0.4 // indirect
	github.com/leodido/go-urn v1.4.0 // indirect
	github.com/libp2p/go-buffer-pool v0.1.0 // indirect
	github.com/libp2p/go-cidranger v1.1.0 // indirect
	github.com/libp2p/go-flow-metrics v0.2.0 // indirect
	github.com/libp2p/go-libp2p-asn-util v0.4.1 // indirect
	github.com/libp2p/go-libp2p-kbucket v0.6.4
	github.com/libp2p/go-libp2p-record v0.2.0 // indirect
	github.com/libp2p/go-msgio v0.3.0
	github.com/libp2p/go-nat v0.2.0 // indirect
	github.com/libp2p/go-netroute v0.2.2 // indirect
	github.com/libp2p/go-reuseport v0.4.0 // indirect
	github.com/libp2p/go-yamux/v4 v4.0.1 // indirect
	github.com/magiconair/properties v1.8.7 // indirect
	github.com/mailru/easyjson v0.7.7 // indirect
	github.com/marten-seemann/tcp v0.0.0-20210406111302-dfbc87cc63fd // indirect
	github.com/mattn/go-isatty v0.0.20 // indirect
	github.com/miekg/dns v1.1.62
	github.com/mikioh/tcpinfo v0.0.0-20190314235526-30a79bb1804b // indirect
	github.com/mikioh/tcpopt v0.0.0-20190314235656-172688c1accc // indirect
	github.com/minio/sha256-simd v1.0.1 // indirect
	github.com/mitchellh/mapstructure v1.5.0 // indirect
	github.com/moby/term v0.0.0-20220808134915-39b0c02b01ae // indirect
	github.com/modern-go/concurrent v0.0.0-20180306012644-bacd9c7ef1dd // indirect
	github.com/modern-go/reflect2 v1.0.2 // indirect
	github.com/morikuni/aec v1.0.0 // indirect
	github.com/mr-tron/base58 v1.2.0 // indirect
	github.com/multiformats/go-base32 v0.1.0 // indirect
	github.com/multiformats/go-base36 v0.2.0 // indirect
	github.com/multiformats/go-multiaddr-dns v0.4.1 // indirect
	github.com/multiformats/go-multiaddr-fmt v0.1.0 // indirect
	github.com/multiformats/go-multibase v0.2.0
	github.com/multiformats/go-multicodec v0.9.0 // indirect
	github.com/multiformats/go-multihash v0.2.3
	github.com/multiformats/go-multistream v0.6.0
	github.com/multiformats/go-varint v0.0.7
	github.com/onsi/ginkgo/v2 v2.22.0 // indirect
	github.com/opencontainers/go-digest v1.0.0 // indirect
	github.com/opencontainers/image-spec v1.0.2
	github.com/opencontainers/runtime-spec v1.2.0 // indirect
	github.com/opentracing/opentracing-go v1.2.0 // indirect
	github.com/pbnjay/memory v0.0.0-20210728143218-7b4eea64cf58 // indirect
	github.com/pelletier/go-toml/v2 v2.2.3 // indirect
	github.com/pkg/errors v0.9.1
	github.com/pmezard/go-difflib v1.0.1-0.20181226105442-5d4384ee4fb2 // indirect
	github.com/polydawn/refmt v0.89.0 // indirect
	github.com/prometheus/client_golang v1.20.5 // indirect
	github.com/prometheus/client_model v0.6.1 // indirect
	github.com/prometheus/common v0.61.0 // indirect
	github.com/prometheus/procfs v0.15.1 // indirect
	github.com/quic-go/qpack v0.5.1 // indirect
	github.com/quic-go/quic-go v0.48.2 // indirect
	github.com/quic-go/webtransport-go v0.8.1-0.20241018022711-4ac2c9250e66 // indirect
	github.com/raulk/go-watchdog v1.3.0 // indirect
	github.com/sagikazarmark/locafero v0.4.0 // indirect
	github.com/sagikazarmark/slog-shim v0.1.0 // indirect
	github.com/sirupsen/logrus v1.9.3 // indirect
	github.com/sourcegraph/conc v0.3.0 // indirect
	github.com/spaolacci/murmur3 v1.1.0 // indirect
	github.com/spf13/cast v1.6.0 // indirect
	github.com/spf13/pflag v1.0.5
	github.com/subosito/gotenv v1.6.0 // indirect
	github.com/tklauser/go-sysconf v0.3.12 // indirect
	github.com/tklauser/numcpus v0.6.1 // indirect
	github.com/twitchyliquid64/golang-asm v0.15.1 // indirect
	github.com/ugorji/go/codec v1.2.12 // indirect
	github.com/whyrusleeping/go-keyspace v0.0.0-20160322163242-5b898ac5add1 // indirect
	github.com/x448/float16 v0.8.4 // indirect
	github.com/yusufpapurcu/wmi v1.2.4 // indirect
	go.opencensus.io v0.24.0 // indirect
	go.opentelemetry.io/otel v1.31.0 // indirect
	go.opentelemetry.io/otel/metric v1.31.0 // indirect
	go.opentelemetry.io/otel/trace v1.31.0 // indirect
	go.uber.org/dig v1.18.0 // indirect
	go.uber.org/fx v1.23.0 // indirect
	go.uber.org/multierr v1.11.0
	golang.org/x/arch v0.12.0 // indirect
	golang.org/x/crypto v0.31.0
	golang.org/x/exp v0.0.0-20241217172543-b2144cdd0a67
	golang.org/x/mod v0.22.0 // indirect
	golang.org/x/net v0.33.0 // indirect
	golang.org/x/sync v0.10.0 // indirect
	golang.org/x/sys v0.28.0
	golang.org/x/text v0.21.0 // indirect
	golang.org/x/tools v0.28.0 // indirect
	gopkg.in/ini.v1 v1.67.0 // indirect
	gopkg.in/yaml.v2 v2.4.0
	gopkg.in/yaml.v3 v3.0.1
	gotest.tools/v3 v3.3.0 // indirect
	lukechampine.com/blake3 v1.3.0 // indirect
)

require (
	github.com/aws/aws-sdk-go-v2/config v1.27.43
	github.com/aws/aws-sdk-go-v2/feature/s3/manager v1.17.31
	github.com/aws/aws-sdk-go-v2/service/s3 v1.65.2
	github.com/shirou/gopsutil v3.21.4-0.20210419000835-c7a38de76ee5+incompatible
)

require (
	github.com/Azure/go-ansiterm v0.0.0-20210617225240-d185dfc1b5a1 // indirect
	github.com/armon/go-radix v1.0.0 // indirect
	github.com/asaskevich/govalidator v0.0.0-20210307081110-f21760c49a8d // indirect
	github.com/aws/aws-sdk-go-v2/aws/protocol/eventstream v1.6.6 // indirect
	github.com/aws/aws-sdk-go-v2/credentials v1.17.41 // indirect
	github.com/aws/aws-sdk-go-v2/feature/ec2/imds v1.16.17 // indirect
	github.com/aws/aws-sdk-go-v2/internal/configsources v1.3.21 // indirect
	github.com/aws/aws-sdk-go-v2/internal/endpoints/v2 v2.6.21 // indirect
	github.com/aws/aws-sdk-go-v2/internal/ini v1.8.1 // indirect
	github.com/aws/aws-sdk-go-v2/internal/v4a v1.3.21 // indirect
	github.com/aws/aws-sdk-go-v2/service/internal/accept-encoding v1.12.0 // indirect
	github.com/aws/aws-sdk-go-v2/service/internal/checksum v1.4.2 // indirect
	github.com/aws/aws-sdk-go-v2/service/internal/presigned-url v1.12.2 // indirect
	github.com/aws/aws-sdk-go-v2/service/internal/s3shared v1.18.2 // indirect
	github.com/aws/aws-sdk-go-v2/service/sso v1.24.2 // indirect
	github.com/aws/aws-sdk-go-v2/service/ssooidc v1.28.2 // indirect
	github.com/aws/aws-sdk-go-v2/service/sts v1.32.2 // indirect
	github.com/aws/smithy-go v1.22.1 // indirect
	github.com/cespare/xxhash v1.1.0 // indirect
	github.com/coreos/go-systemd/v22 v22.5.0 // indirect
	github.com/dgraph-io/badger/v3 v3.2103.2
	github.com/dgraph-io/ristretto v0.1.0 // indirect
	github.com/elastic/go-licenser v0.3.1 // indirect
	github.com/elastic/go-sysinfo v1.7.1 // indirect
	github.com/elastic/go-windows v1.0.0 // indirect
	github.com/go-openapi/analysis v0.21.2 // indirect
	github.com/go-openapi/errors v0.20.2 // indirect
	github.com/go-openapi/loads v0.21.1 // indirect
	github.com/go-openapi/runtime v0.24.0 // indirect
	github.com/go-openapi/strfmt v0.21.2 // indirect
	github.com/go-openapi/validate v0.22.0 // indirect
	github.com/go-stack/stack v1.8.1 // indirect
	github.com/golang/glog v1.2.2 // indirect
	github.com/golang/groupcache v0.0.0-20210331224755-41bb18bfe9da // indirect
	github.com/golang/snappy v0.0.5-0.20220116011046-fa5810519dcb // indirect
	github.com/google/flatbuffers v2.0.6+incompatible // indirect
	github.com/google/orderedcode v0.0.1 // indirect
	github.com/hashicorp/golang-lru/v2 v2.0.7 // indirect
	github.com/jcchavezs/porto v0.1.0 // indirect
	github.com/joeshaw/multierror v0.0.0-20140124173710-69b34d4ec901 // indirect
	github.com/libp2p/go-libp2p-routing-helpers v0.7.4 // indirect
	github.com/lufia/plan9stats v0.0.0-20211012122336-39d0f177ccd0 // indirect
	github.com/oklog/ulid v1.3.1 // indirect
	github.com/pion/datachannel v1.5.10 // indirect
	github.com/pion/dtls/v2 v2.2.12 // indirect
	github.com/pion/ice/v2 v2.3.37 // indirect
	github.com/pion/interceptor v0.1.37 // indirect
	github.com/pion/logging v0.2.2 // indirect
	github.com/pion/mdns v0.0.12 // indirect
	github.com/pion/randutil v0.1.0 // indirect
	github.com/pion/rtcp v1.2.15 // indirect
	github.com/pion/rtp v1.8.10 // indirect
	github.com/pion/sctp v1.8.35 // indirect
	github.com/pion/sdp/v3 v3.0.9 // indirect
	github.com/pion/srtp/v2 v2.0.20 // indirect
	github.com/pion/stun v0.6.1 // indirect
	github.com/pion/transport/v2 v2.2.10 // indirect
	github.com/pion/turn/v2 v2.1.6 // indirect
	github.com/pion/webrtc/v3 v3.3.5 // indirect
	github.com/power-devops/perfstat v0.0.0-20210106213030-5aafc221ea8c // indirect
	github.com/santhosh-tekuri/jsonschema v1.2.4 // indirect
	github.com/satori/go.uuid v1.2.0 // indirect
	github.com/vishvananda/netlink v1.1.1-0.20210330154013-f5de75959ad5
	github.com/vishvananda/netns v0.0.0-20210104183010-2eb08e3e575f // indirect
	github.com/vmihailenco/msgpack/v5 v5.3.5 // indirect
	github.com/vmihailenco/tagparser/v2 v2.0.0 // indirect
	go.elastic.co/fastjson v1.1.0 // indirect
	go.etcd.io/bbolt v1.3.6 // indirect
	go.mongodb.org/mongo-driver v1.8.3 // indirect
	golang.org/x/lint v0.0.0-20201208152925-83fdc39ff7b5 // indirect
	golang.org/x/term v0.27.0
	gonum.org/v1/gonum v0.15.1 // indirect
)

require github.com/avast/retry-go v3.0.0+incompatible

require (
	github.com/natefinch/lumberjack v2.0.0+incompatible
	github.com/olivere/elastic/v7 v7.0.32
	go.elastic.co/apm/module/apmgin/v2 v2.6.2
	go.elastic.co/apm/module/apmhttp v1.15.0
	go.uber.org/mock v0.5.0
)

require (
	github.com/gorilla/websocket v1.5.3 // indirect
	github.com/oschwald/maxminddb-golang v1.13.0 // indirect
	github.com/pion/transport/v3 v3.0.7 // indirect
	go.elastic.co/apm/module/apmhttp/v2 v2.6.2 // indirect
	go.elastic.co/apm/v2 v2.6.2 // indirect
	howett.net/plist v0.0.0-20181124034731-591f970eefbb // indirect
)

require (
	github.com/bytedance/sonic/loader v0.2.1 // indirect
	github.com/chzyer/readline v1.5.1 // indirect
	github.com/cloudwego/base64x v0.1.4 // indirect
	github.com/cloudwego/iasm v0.2.0 // indirect
	github.com/containerd/cgroups v1.1.0 // indirect
	github.com/containerd/fifo v1.0.0 // indirect
	github.com/containerd/log v0.1.0 // indirect
	github.com/containernetworking/cni v1.0.1 // indirect
	github.com/containernetworking/plugins v1.0.1 // indirect
	github.com/distribution/reference v0.6.0 // indirect
	github.com/ebitengine/purego v0.8.1 // indirect
	github.com/felixge/httpsnoop v1.0.4 // indirect
	github.com/go-task/slim-sprig/v3 v3.0.0 // indirect
	github.com/moby/docker-image-spec v1.3.1 // indirect
	github.com/munnerz/goautoneg v0.0.0-20191010083416-a7dc8b61c822 // indirect
	github.com/rogpeppe/go-internal v1.13.1 // indirect
	github.com/wlynxg/anet v0.0.5 // indirect
	go.elastic.co/apm v1.15.0
	go.opentelemetry.io/contrib/instrumentation/net/http/otelhttp v0.56.0 // indirect
)
